<?xml version="1.0" encoding="UTF-8" standalone="no"?>
<!-- Created with Inkscape (http://www.inkscape.org/) -->

<svg
   width="372"
   height="180"
   viewBox="0 0 372 180"
   version="1.1"
   id="svg5">
  <defs
     id="defs2" />
  <g
     id="layer1">
    <g
       id="text1023"
       style="font-size:192px">
      <path
         d="m 85.406143,48.883118 q -10.875,0 -22.125,0 -11.25,-0.1875 -22.3125,-1.125 -7.3125,-0.75 -11.625,-4.125 -4.3125,-3.5625 -4.3125,-11.4375 v -21.5625 q 0,-3.9375003 1.875,-6.3750003 1.875,-2.4375 6,-2.4375 4.5,0 6,2.25 1.6875,2.0625 1.6875,5.4375 0.1875,3.1875003 0.1875,6.3750003 25.875,-1.3125 51.375,-3.75 25.687497,-2.6250003 51.187497,-7.5000003 1.125,-0.1875 2.4375,-0.5625 1.5,-0.375 2.625,-0.375 6.75,0 6.75,6.5625003 0,3.5625 -3.375,4.875 -3.375,1.3125 -6,1.875 -15.375,3.375 -33.75,5.25 -18.374997,1.875 -36.937497,2.8125 -18.5625,0.9375 -34.3125,1.5 0,5.625 2.8125,7.3125 3,1.6875 8.0625,2.0625 12.75,1.125 25.875,1.3125 13.3125,0 26.249997,0 6,0 14.4375,0.1875 8.625,0 17.0625,-0.375 8.625,-0.375 14.25,-1.5 4.3125,-0.9375 5.8125,-3.375 1.6875,-2.4375 2.25,-5.25 0.75,-2.8125 2.25,-4.875 1.5,-2.0625 6,-2.0625 3.5625,0 5.625,1.6875 2.25,1.5 2.25,5.25 0,8.625 -3.75,13.5 -3.75,4.875 -12.375,6.375 -5.8125,0.9375 -12.1875,1.125 -6.1875,0.1875 -12.1875,0.375 -12,0.375 -24,0.5625 -11.812497,0 -23.812497,0 z m -26.8125,78.937502 q -14.625,0 -14.625,-14.4375 V 71.570618 q 0,-14.4375 14.4375,-14.4375 h 85.874997 q 14.4375,0 14.4375,14.4375 v 41.812502 q 0,14.4375 -14.4375,14.4375 z m -30.5625,21.75 q -15.1875,0 -15.1875,-15.375 V 71.195618 q 0,-4.3125 1.6875,-6.9375 1.6875,-2.8125 6.375,-2.8125 4.5,0 6.1875,2.8125 1.6875,2.8125 1.6875,6.9375 v 58.875002 q 0,3 1.875,4.875 1.875,1.875 4.875,1.875 H 170.53114 q 3.1875,0 5.25,1.5 2.0625,1.3125 2.0625,4.875 0,3.5625 -2.0625,5.0625 -2.0625,1.3125 -5.25,1.3125 z m 30.9375,-72.562502 h 84.374997 v -4.6875 q 0,-4.6875 -4.6875,-4.6875 H 63.656143 q -4.6875,0 -4.6875,4.6875 z m 0,19.6875 h 84.374997 v -9.75 H 58.968643 Z m 4.6875,20.625002 h 74.999997 q 4.6875,0 4.6875,-4.6875 v -6 H 58.968643 v 6 q 0,4.6875 4.6875,4.6875 z m -54.7500003,60.5625 q -7.3125,0 -7.3125,-7.3125 0,-2.8125 2.625,-4.3125 2.625,-1.5 5.8125003,-2.0625 3.375,-0.5625 5.25,-0.75 7.6875,-0.9375 15,-2.0625 7.3125,-1.125 14.8125,-3 3.5625,-0.9375 6.9375,-1.875 3.375,-1.125 6.9375,-1.875 1.125,-0.375 2.625,-0.5625 1.5,-0.375 2.4375,-0.375 3.375,0 5.4375,2.0625 2.25,1.875 2.25,5.25 0,2.625 -3.5625,4.3125 -3.375,1.875 -7.3125,3 -3.9375,1.125 -5.8125,1.5 -6.9375,1.5 -15,3.375 -8.0625,2.0625 -16.125,3.375 -7.875,1.3125 -15.0000003,1.3125 z m 160.1249973,-0.5625 q -2.4375,0 -9.375,-0.9375 -6.75,-0.75 -15.375,-2.4375 -8.625,-1.5 -16.875,-3.5625 -8.0625,-2.0625 -13.5,-4.5 -5.25,-2.4375 -5.25,-5.0625 0,-4.125 2.4375,-5.4375 2.625,-1.5 6.1875,-1.5 1.5,0 3,0.5625 1.5,0.375 2.8125,0.75 12.1875,3.75 23.4375,5.25 11.25,1.3125 23.8125,2.8125 3,0.375 5.0625,1.6875 2.0625,1.5 2.0625,4.875 0,4.125 -2.4375,5.8125 -2.25,1.6875 -6,1.6875 z"
         style="-inkscape-font-specification:'Kosugi Maru, Normal'"
         id="path6791" />
      <path
         d="m 303.46864,178.44562 q -4.3125,0 -6,-2.625 -1.5,-2.625 -1.5,-6.5625 v -36.375 h -32.8125 v 33 q 0,3.9375 -1.6875,6.375 -1.6875,2.625 -6,2.625 -4.125,0 -5.8125,-2.625 -1.6875,-2.625 -1.6875,-6.375 V 73.820618 q 0,-16.125 15.75,-16.125 h 32.25 v -15.5625 h -45.5625 q -3.75,0 -6,-1.6875 -2.25,-1.875 -2.25,-5.8125 0,-3.9375 2.25,-5.625 2.25,-1.875 6,-1.875 h 45.5625 v -16.125 q 0,-3.9375003 1.5,-6.5625003 1.6875,-2.625 6,-2.625 4.3125,0 5.8125,2.625 1.6875,2.625 1.6875,6.5625003 v 16.125 h 49.875 q 3.9375,0 6.5625,1.6875 2.625,1.5 2.625,5.8125 0,4.3125 -2.625,6 -2.625,1.5 -6.5625,1.5 h -49.875 v 15.5625 h 32.0625 q 10.3125,0 13.875,3.9375 3.75,3.9375 3.75,14.0625 v 81.187502 q 0,17.25 -17.0625,17.25 h -12 q -4.125,0 -6.5625,-2.0625 -2.25,-1.875 -2.25,-6 0,-4.5 1.875,-6 2.0625,-1.6875 5.0625,-1.875 3,-0.1875 6,-0.1875 3.75,0 6.5625,-1.125 3,-1.125 3,-6.1875 v -17.8125 h -34.3125 v 36.375 q 0,3.9375 -1.6875,6.5625 -1.5,2.625 -5.8125,2.625 z m 41.625,-153.937502 q -1.3125,0 -4.125,-1.6875 -2.8125,-1.875 -6,-4.5 -3,-2.625 -5.0625,-5.0625 -2.0625,-2.625 -2.0625,-4.1250003 0,-6.375 6.9375,-6.375 1.5,0 4.3125,1.6875 2.8125,1.6875 5.8125,4.125 3,2.2500003 5.0625,4.6875003 2.25,2.25 2.25,3.75 0,7.5 -7.125,7.5 z m -112.3125,8.25 q -1.6875,0 -6,-1.875 -4.125,-2.0625 -8.8125,-4.875 -4.6875,-3 -8.0625,-6 -3.375,-3 -3.375,-5.25 0,-8.6250003 8.8125,-8.6250003 2.4375,0 6.5625,1.6875 4.3125,1.6875 8.8125,4.5000003 4.5,2.625 7.5,5.8125 3.1875,3 3.1875,5.625 0,9 -8.625,9 z m -8.0625,48.375 q -1.5,0 -4.3125,-1.125 -2.8125,-1.3125 -5.625,-2.625 -2.625,-1.5 -4.125,-2.0625 -2.0625,-1.125 -5.25,-2.625 -3.1875,-1.5 -5.8125,-3.75 -2.4375,-2.25 -2.4375,-5.0625 0,-8.625 8.8125,-8.625 2.0625,0 5.625,1.3125 3.75,1.3125 7.3125,3 3.75,1.6875 5.625,2.625 3,1.3125 5.8125,3.75 2.8125,2.4375 2.8125,6.1875 0,9 -8.4375,9 z m 38.4375,7.875 h 32.8125 v -17.4375 h -26.4375 q -2.8125,0 -4.6875,1.6875 -1.6875,1.6875 -1.6875,4.5 z m 47.8125,0 h 34.3125 v -11.25 q 0,-2.8125 -1.6875,-4.5 -1.6875,-1.6875 -4.5,-1.6875 h -28.125 z m -47.8125,30.750002 h 32.8125 v -17.625 h -32.8125 z m 47.8125,0 h 34.3125 v -17.625 h -34.3125 z m -104.4375,54.9375 q -4.125,0 -6.75,-2.0625 -2.4375,-1.875 -2.4375,-6.1875 0,-1.6875 0.375,-3.375 0.5625,-1.5 1.3125,-3 10.125,-23.25 18.5625,-48 1.125,-3.375 3.1875,-5.8125 2.0625,-2.4375 6,-2.4375 3.9375,0 6.75,1.6875 3,1.5 3,6 0,1.875 -1.875,7.6875 -1.6875,5.8125 -4.5,13.5 -2.8125,7.6875 -6,15.5625 -3,7.6875 -5.625,13.5 -2.4375,5.8125 -3.5625,7.6875 -1.5,2.4375 -3.375,3.75 -1.875,1.5 -5.0625,1.5 z"
         style="-inkscape-font-specification:'Kosugi Maru, Normal'"
         id="path6793" />
    </g>
  </g>
</svg>
